{
  "response": [
    {
      "datetime": 1510981731, 
      "filename": "lineage-15.0-20171118_020851-DEVPREVIEW-xkeita-z3.zip", 
      "id": "ecc7d6fc4bd6468f879780d97665ccfb", 
      "romtype": "DEVPREVIEW-xkeita", 
      "url": "https://forum.xda-developers.com/devdb/project/dl/?id=27356&task=get", 
      "version": "15.0"
    }
  ]
}